{
  "timeZone": "America/New_York",
  "dependencies": {
    "libraries": [
      {
        "userSymbol": "BatchRequest",
        "version": "6",
        "libraryId": "1HLv6tWz0oXFOJHerBTP8HsNmhpRqssijJatC92bv9Ym6HSN69_UuzcDk"
      }
    ],
    "enabledAdvancedServices": [
      {
        "userSymbol": "Calendar",
        "version": "v3",
        "serviceId": "calendar"
      }
    ]
  },
  "exceptionLogging": "STACKDRIVER",
  "runtimeVersion": "V8"
}
